%YAML 1.1
%TAG !u! tag:unity3d.com,2011:
--- !u!1 &1351264933452697702
GameObject:
  m_ObjectHideFlags: 0
  m_CorrespondingSourceObject: {fileID: 0}
  m_PrefabInstance: {fileID: 0}
  m_PrefabAsset: {fileID: 0}
  serializedVersion: 6
  m_Component:
  - component: {fileID: 1351264933452697704}
  - component: {fileID: 1351264933452697703}
  - component: {fileID: 1351264933452697705}
  - component: {fileID: 1351264933452697707}
  - component: {fileID: 1351264933452697706}
  - component: {fileID: 8942970714588458565}
  - component: {fileID: 8238667744373631807}
  m_Layer: 0
  m_Name: Player
  m_TagString: Player
  m_Icon: {fileID: 0}
  m_NavMeshLayer: 0
  m_StaticEditorFlags: 0
  m_IsActive: 1
--- !u!4 &1351264933452697704
Transform:
  m_ObjectHideFlags: 0
  m_CorrespondingSourceObject: {fileID: 0}
  m_PrefabInstance: {fileID: 0}
  m_PrefabAsset: {fileID: 0}
  m_GameObject: {fileID: 1351264933452697702}
  m_LocalRotation: {x: 0, y: 0, z: 0, w: 1}
  m_LocalPosition: {x: 0.89, y: -2.17, z: 0}
  m_LocalScale: {x: 1, y: 1, z: 1}
  m_Children:
  - {fileID: 5715504290573022539}
  - {fileID: 3884813847956010065}
  - {fileID: 7830720938704741985}
  m_Father: {fileID: 0}
  m_RootOrder: 0
  m_LocalEulerAnglesHint: {x: 0, y: 0, z: 0}
--- !u!212 &1351264933452697703
SpriteRenderer:
  m_ObjectHideFlags: 0
  m_CorrespondingSourceObject: {fileID: 0}
  m_PrefabInstance: {fileID: 0}
  m_PrefabAsset: {fileID: 0}
  m_GameObject: {fileID: 1351264933452697702}
  m_Enabled: 1
  m_CastShadows: 0
  m_ReceiveShadows: 0
  m_DynamicOccludee: 1
  m_MotionVectors: 1
  m_LightProbeUsage: 1
  m_ReflectionProbeUsage: 1
  m_RayTracingMode: 0
  m_RayTraceProcedural: 0
  m_RenderingLayerMask: 1
  m_RendererPriority: 0
  m_Materials:
  - {fileID: 10754, guid: 0000000000000000f000000000000000, type: 0}
  m_StaticBatchInfo:
    firstSubMesh: 0
    subMeshCount: 0
  m_StaticBatchRoot: {fileID: 0}
  m_ProbeAnchor: {fileID: 0}
  m_LightProbeVolumeOverride: {fileID: 0}
  m_ScaleInLightmap: 1
  m_ReceiveGI: 1
  m_PreserveUVs: 0
  m_IgnoreNormalsForChartDetection: 0
  m_ImportantGI: 0
  m_StitchLightmapSeams: 1
  m_SelectedEditorRenderState: 0
  m_MinimumChartSize: 4
  m_AutoUVMaxDistance: 0.5
  m_AutoUVMaxAngle: 89
  m_LightmapParameters: {fileID: 0}
  m_SortingLayerID: 0
  m_SortingLayer: 0
  m_SortingOrder: 10
  m_Sprite: {fileID: 21300000, guid: c19470f5e3e79e746ae03649763a216b, type: 3}
  m_Color: {r: 1, g: 1, b: 1, a: 1}
  m_FlipX: 0
  m_FlipY: 0
  m_DrawMode: 0
  m_Size: {x: 0.62, y: 0.6}
  m_AdaptiveModeThreshold: 0.5
  m_SpriteTileMode: 0
  m_WasSpriteAssigned: 1
  m_MaskInteraction: 0
  m_SpriteSortPoint: 0
--- !u!114 &1351264933452697705
MonoBehaviour:
  m_ObjectHideFlags: 0
  m_CorrespondingSourceObject: {fileID: 0}
  m_PrefabInstance: {fileID: 0}
  m_PrefabAsset: {fileID: 0}
  m_GameObject: {fileID: 1351264933452697702}
  m_Enabled: 1
  m_EditorHideFlags: 0
  m_Script: {fileID: 11500000, guid: 0e859fd097ace8241a00f74c8b65a44d, type: 3}
  m_Name: 
  m_EditorClassIdentifier: 
  translateForce: 5
  LeftJump: {fileID: 21300000, guid: ffa926d6363851448a3ec6ee60c3023b, type: 3}
  LeftFall: {fileID: 21300000, guid: 525106022b748fb4296e819b34d5f206, type: 3}
  RightJump: {fileID: 21300000, guid: 4675e541ad6396345826245f06a7d7c8, type: 3}
  RightFall: {fileID: 21300000, guid: c19470f5e3e79e746ae03649763a216b, type: 3}
  ShootUp: {fileID: 21300000, guid: b96852ca6ebbe7443a0efb7b6cace8f7, type: 3}
  canon: {fileID: 1991054940484791866, guid: 90eef1dba98a1c847b2cb08ba37790de, type: 3}
  play: 0
  jumpUp: 0
  bullet: {fileID: 3820387732556720352, guid: 06a4206c40189de498d56353eb853aa1, type: 3}
  bulletClip: {fileID: 8300000, guid: 1635d7dfd3cc87f46a81882079015a00, type: 3}
  bonusJump: 0
  bonusJumpJetpack: 0
  bonusJumpHat: 0
  bonusJumpSring: 0
--- !u!50 &1351264933452697707
Rigidbody2D:
  serializedVersion: 4
  m_ObjectHideFlags: 0
  m_CorrespondingSourceObject: {fileID: 0}
  m_PrefabInstance: {fileID: 0}
  m_PrefabAsset: {fileID: 0}
  m_GameObject: {fileID: 1351264933452697702}
  m_BodyType: 0
  m_Simulated: 1
  m_UseFullKinematicContacts: 0
  m_UseAutoMass: 0
  m_Mass: 1
  m_LinearDrag: 0
  m_AngularDrag: 0.05
  m_GravityScale: 1
  m_Material: {fileID: 0}
  m_Interpolate: 0
  m_SleepingMode: 1
  m_CollisionDetection: 1
  m_Constraints: 4
--- !u!61 &1351264933452697706
BoxCollider2D:
  m_ObjectHideFlags: 0
  m_CorrespondingSourceObject: {fileID: 0}
  m_PrefabInstance: {fileID: 0}
  m_PrefabAsset: {fileID: 0}
  m_GameObject: {fileID: 1351264933452697702}
  m_Enabled: 1
  m_Density: 1
  m_Material: {fileID: 0}
  m_IsTrigger: 1
  m_UsedByEffector: 0
  m_UsedByComposite: 0
  m_Offset: {x: 0.022186786, y: -0.20864278}
  m_SpriteTilingProperty:
    border: {x: 0, y: 0, z: 0, w: 0}
    pivot: {x: 0.5, y: 0.5}
    oldSize: {x: 1.24, y: 1.2}
    newSize: {x: 0.62, y: 0.6}
    adaptiveTilingThreshold: 0.5
    drawMode: 0
    adaptiveTiling: 0
  m_AutoTiling: 0
  serializedVersion: 2
  m_Size: {x: 0.56731635, y: 0.771531}
  m_EdgeRadius: 0
--- !u!95 &8942970714588458565
Animator:
  serializedVersion: 3
  m_ObjectHideFlags: 0
  m_CorrespondingSourceObject: {fileID: 0}
  m_PrefabInstance: {fileID: 0}
  m_PrefabAsset: {fileID: 0}
  m_GameObject: {fileID: 1351264933452697702}
  m_Enabled: 1
  m_Avatar: {fileID: 0}
  m_Controller: {fileID: 9100000, guid: 0c85767707391544fab47300c085cdf4, type: 2}
  m_CullingMode: 0
  m_UpdateMode: 0
  m_ApplyRootMotion: 0
  m_LinearVelocityBlending: 0
  m_WarningMessage: 
  m_HasTransformHierarchy: 1
  m_AllowConstantClipSamplingOptimization: 1
  m_KeepAnimatorControllerStateOnDisable: 0
--- !u!82 &8238667744373631807
AudioSource:
  m_ObjectHideFlags: 0
  m_CorrespondingSourceObject: {fileID: 0}
  m_PrefabInstance: {fileID: 0}
  m_PrefabAsset: {fileID: 0}
  m_GameObject: {fileID: 1351264933452697702}
  m_Enabled: 1
  serializedVersion: 4
  OutputAudioMixerGroup: {fileID: 0}
  m_audioClip: {fileID: 0}
  m_PlayOnAwake: 1
  m_Volume: 1
  m_Pitch: 1
  Loop: 0
  Mute: 0
  Spatialize: 0
  SpatializePostEffects: 0
  Priority: 128
  DopplerLevel: 1
  MinDistance: 1
  MaxDistance: 500
  Pan2D: 0
  rolloffMode: 0
  BypassEffects: 0
  BypassListenerEffects: 0
  BypassReverbZones: 0
  rolloffCustomCurve:
    serializedVersion: 2
    m_Curve:
    - serializedVersion: 3
      time: 0
      value: 1
      inSlope: 0
      outSlope: 0
      tangentMode: 0
      weightedMode: 0
      inWeight: 0.33333334
      outWeight: 0.33333334
    - serializedVersion: 3
      time: 1
      value: 0
      inSlope: 0
      outSlope: 0
      tangentMode: 0
      weightedMode: 0
      inWeight: 0.33333334
      outWeight: 0.33333334
    m_PreInfinity: 2
    m_PostInfinity: 2
    m_RotationOrder: 4
  panLevelCustomCurve:
    serializedVersion: 2
    m_Curve:
    - serializedVersion: 3
      time: 0
      value: 0
      inSlope: 0
      outSlope: 0
      tangentMode: 0
      weightedMode: 0
      inWeight: 0.33333334
      outWeight: 0.33333334
    m_PreInfinity: 2
    m_PostInfinity: 2
    m_RotationOrder: 4
  spreadCustomCurve:
    serializedVersion: 2
    m_Curve:
    - serializedVersion: 3
      time: 0
      value: 0
      inSlope: 0
      outSlope: 0
      tangentMode: 0
      weightedMode: 0
      inWeight: 0.33333334
      outWeight: 0.33333334
    m_PreInfinity: 2
    m_PostInfinity: 2
    m_RotationOrder: 4
  reverbZoneMixCustomCurve:
    serializedVersion: 2
    m_Curve:
    - serializedVersion: 3
      time: 0
      value: 1
      inSlope: 0
      outSlope: 0
      tangentMode: 0
      weightedMode: 0
      inWeight: 0.33333334
      outWeight: 0.33333334
    m_PreInfinity: 2
    m_PostInfinity: 2
    m_RotationOrder: 4
--- !u!1001 &2611034509388770369
PrefabInstance:
  m_ObjectHideFlags: 0
  serializedVersion: 2
  m_Modification:
    m_TransformParent: {fileID: 1351264933452697704}
    m_Modifications:
    - target: {fileID: 1285183484310640656, guid: c46b32473795abc4a92447c2c519c1d9, type: 3}
      propertyPath: m_RootOrder
      value: 1
      objectReference: {fileID: 0}
    - target: {fileID: 1285183484310640656, guid: c46b32473795abc4a92447c2c519c1d9, type: 3}
      propertyPath: m_LocalScale.x
      value: 2
      objectReference: {fileID: 0}
    - target: {fileID: 1285183484310640656, guid: c46b32473795abc4a92447c2c519c1d9, type: 3}
      propertyPath: m_LocalScale.y
      value: 2
      objectReference: {fileID: 0}
    - target: {fileID: 1285183484310640656, guid: c46b32473795abc4a92447c2c519c1d9, type: 3}
      propertyPath: m_LocalPosition.x
      value: -0.35
      objectReference: {fileID: 0}
    - target: {fileID: 1285183484310640656, guid: c46b32473795abc4a92447c2c519c1d9, type: 3}
      propertyPath: m_LocalPosition.y
      value: -0.6
      objectReference: {fileID: 0}
    - target: {fileID: 1285183484310640656, guid: c46b32473795abc4a92447c2c519c1d9, type: 3}
      propertyPath: m_LocalPosition.z
      value: 0
      objectReference: {fileID: 0}
    - target: {fileID: 1285183484310640656, guid: c46b32473795abc4a92447c2c519c1d9, type: 3}
      propertyPath: m_LocalRotation.w
      value: 0
      objectReference: {fileID: 0}
    - target: {fileID: 1285183484310640656, guid: c46b32473795abc4a92447c2c519c1d9, type: 3}
      propertyPath: m_LocalRotation.x
      value: 0
      objectReference: {fileID: 0}
    - target: {fileID: 1285183484310640656, guid: c46b32473795abc4a92447c2c519c1d9, type: 3}
      propertyPath: m_LocalRotation.y
      value: 1
      objectReference: {fileID: 0}
    - target: {fileID: 1285183484310640656, guid: c46b32473795abc4a92447c2c519c1d9, type: 3}
      propertyPath: m_LocalRotation.z
      value: 0
      objectReference: {fileID: 0}
    - target: {fileID: 1285183484310640656, guid: c46b32473795abc4a92447c2c519c1d9, type: 3}
      propertyPath: m_LocalEulerAnglesHint.x
      value: 0
      objectReference: {fileID: 0}
    - target: {fileID: 1285183484310640656, guid: c46b32473795abc4a92447c2c519c1d9, type: 3}
      propertyPath: m_LocalEulerAnglesHint.y
      value: 180
      objectReference: {fileID: 0}
    - target: {fileID: 1285183484310640656, guid: c46b32473795abc4a92447c2c519c1d9, type: 3}
      propertyPath: m_LocalEulerAnglesHint.z
      value: 0
      objectReference: {fileID: 0}
    - target: {fileID: 2770672839410114679, guid: c46b32473795abc4a92447c2c519c1d9, type: 3}
      propertyPath: m_Name
      value: Jetpack
      objectReference: {fileID: 0}
    - target: {fileID: 2770672839410114679, guid: c46b32473795abc4a92447c2c519c1d9, type: 3}
      propertyPath: m_IsActive
      value: 0
      objectReference: {fileID: 0}
    - target: {fileID: 2770672839410114679, guid: c46b32473795abc4a92447c2c519c1d9, type: 3}
      propertyPath: m_TagString
      value: Jetpack
      objectReference: {fileID: 0}
    - target: {fileID: 3802887662417057022, guid: c46b32473795abc4a92447c2c519c1d9, type: 3}
      propertyPath: m_Enabled
      value: 0
      objectReference: {fileID: 0}
    - target: {fileID: 6954888979077472658, guid: c46b32473795abc4a92447c2c519c1d9, type: 3}
      propertyPath: m_Sprite
      value: 
      objectReference: {fileID: -739779385537081851, guid: 177bc9663cd129a4c80acd217a3fe6fe, type: 3}
    - target: {fileID: 7595369063809413212, guid: c46b32473795abc4a92447c2c519c1d9, type: 3}
      propertyPath: m_Enabled
      value: 0
      objectReference: {fileID: 0}
    m_RemovedComponents:
    - {fileID: 3802887662417057022, guid: c46b32473795abc4a92447c2c519c1d9, type: 3}
    - {fileID: 7595369063809413212, guid: c46b32473795abc4a92447c2c519c1d9, type: 3}
  m_SourcePrefab: {fileID: 100100000, guid: c46b32473795abc4a92447c2c519c1d9, type: 3}
--- !u!4 &3884813847956010065 stripped
Transform:
  m_CorrespondingSourceObject: {fileID: 1285183484310640656, guid: c46b32473795abc4a92447c2c519c1d9, type: 3}
  m_PrefabInstance: {fileID: 2611034509388770369}
  m_PrefabAsset: {fileID: 0}
--- !u!1001 &3058185832767818047
PrefabInstance:
  m_ObjectHideFlags: 0
  serializedVersion: 2
  m_Modification:
    m_TransformParent: {fileID: 1351264933452697704}
    m_Modifications:
    - target: {fileID: 1991054940484791866, guid: 90eef1dba98a1c847b2cb08ba37790de, type: 3}
      propertyPath: m_Name
      value: Canon
      objectReference: {fileID: 0}
    - target: {fileID: 1991054940484791866, guid: 90eef1dba98a1c847b2cb08ba37790de, type: 3}
      propertyPath: m_IsActive
      value: 0
      objectReference: {fileID: 0}
    - target: {fileID: 1991054940484791866, guid: 90eef1dba98a1c847b2cb08ba37790de, type: 3}
      propertyPath: m_TagString
      value: Canon
      objectReference: {fileID: 0}
    - target: {fileID: 7287201403067530356, guid: 90eef1dba98a1c847b2cb08ba37790de, type: 3}
      propertyPath: m_RootOrder
      value: 0
      objectReference: {fileID: 0}
    - target: {fileID: 7287201403067530356, guid: 90eef1dba98a1c847b2cb08ba37790de, type: 3}
      propertyPath: m_LocalPosition.x
      value: 0
      objectReference: {fileID: 0}
    - target: {fileID: 7287201403067530356, guid: 90eef1dba98a1c847b2cb08ba37790de, type: 3}
      propertyPath: m_LocalPosition.y
      value: -0.1
      objectReference: {fileID: 0}
    - target: {fileID: 7287201403067530356, guid: 90eef1dba98a1c847b2cb08ba37790de, type: 3}
      propertyPath: m_LocalPosition.z
      value: 0
      objectReference: {fileID: 0}
    - target: {fileID: 7287201403067530356, guid: 90eef1dba98a1c847b2cb08ba37790de, type: 3}
      propertyPath: m_LocalRotation.w
      value: 1
      objectReference: {fileID: 0}
    - target: {fileID: 7287201403067530356, guid: 90eef1dba98a1c847b2cb08ba37790de, type: 3}
      propertyPath: m_LocalRotation.x
      value: 0
      objectReference: {fileID: 0}
    - target: {fileID: 7287201403067530356, guid: 90eef1dba98a1c847b2cb08ba37790de, type: 3}
      propertyPath: m_LocalRotation.y
      value: 0
      objectReference: {fileID: 0}
    - target: {fileID: 7287201403067530356, guid: 90eef1dba98a1c847b2cb08ba37790de, type: 3}
      propertyPath: m_LocalRotation.z
      value: 0
      objectReference: {fileID: 0}
    - target: {fileID: 7287201403067530356, guid: 90eef1dba98a1c847b2cb08ba37790de, type: 3}
      propertyPath: m_LocalEulerAnglesHint.x
      value: 0
      objectReference: {fileID: 0}
    - target: {fileID: 7287201403067530356, guid: 90eef1dba98a1c847b2cb08ba37790de, type: 3}
      propertyPath: m_LocalEulerAnglesHint.y
      value: 0
      objectReference: {fileID: 0}
    - target: {fileID: 7287201403067530356, guid: 90eef1dba98a1c847b2cb08ba37790de, type: 3}
      propertyPath: m_LocalEulerAnglesHint.z
      value: 0
      objectReference: {fileID: 0}
    m_RemovedComponents: []
  m_SourcePrefab: {fileID: 100100000, guid: 90eef1dba98a1c847b2cb08ba37790de, type: 3}
--- !u!4 &5715504290573022539 stripped
Transform:
  m_CorrespondingSourceObject: {fileID: 7287201403067530356, guid: 90eef1dba98a1c847b2cb08ba37790de, type: 3}
  m_PrefabInstance: {fileID: 3058185832767818047}
  m_PrefabAsset: {fileID: 0}
--- !u!1001 &4348428801677591765
PrefabInstance:
  m_ObjectHideFlags: 0
  serializedVersion: 2
  m_Modification:
    m_TransformParent: {fileID: 1351264933452697704}
    m_Modifications:
    - target: {fileID: -3440873009064375709, guid: e7f7618a1ecfefd4eba852b682c1ca48, type: 3}
      propertyPath: m_Enabled
      value: 0
      objectReference: {fileID: 0}
    - target: {fileID: 5833559824203752116, guid: e7f7618a1ecfefd4eba852b682c1ca48, type: 3}
      propertyPath: m_RootOrder
      value: 2
      objectReference: {fileID: 0}
    - target: {fileID: 5833559824203752116, guid: e7f7618a1ecfefd4eba852b682c1ca48, type: 3}
      propertyPath: m_LocalScale.x
      value: 1
      objectReference: {fileID: 0}
    - target: {fileID: 5833559824203752116, guid: e7f7618a1ecfefd4eba852b682c1ca48, type: 3}
      propertyPath: m_LocalScale.y
      value: 1
      objectReference: {fileID: 0}
    - target: {fileID: 5833559824203752116, guid: e7f7618a1ecfefd4eba852b682c1ca48, type: 3}
      propertyPath: m_LocalPosition.x
      value: -0.2
      objectReference: {fileID: 0}
    - target: {fileID: 5833559824203752116, guid: e7f7618a1ecfefd4eba852b682c1ca48, type: 3}
      propertyPath: m_LocalPosition.y
      value: 0.3
      objectReference: {fileID: 0}
    - target: {fileID: 5833559824203752116, guid: e7f7618a1ecfefd4eba852b682c1ca48, type: 3}
      propertyPath: m_LocalPosition.z
      value: 0
      objectReference: {fileID: 0}
    - target: {fileID: 5833559824203752116, guid: e7f7618a1ecfefd4eba852b682c1ca48, type: 3}
      propertyPath: m_LocalRotation.w
      value: 0.97629607
      objectReference: {fileID: 0}
    - target: {fileID: 5833559824203752116, guid: e7f7618a1ecfefd4eba852b682c1ca48, type: 3}
      propertyPath: m_LocalRotation.x
      value: 0
      objectReference: {fileID: 0}
    - target: {fileID: 5833559824203752116, guid: e7f7618a1ecfefd4eba852b682c1ca48, type: 3}
      propertyPath: m_LocalRotation.y
      value: 0
      objectReference: {fileID: 0}
    - target: {fileID: 5833559824203752116, guid: e7f7618a1ecfefd4eba852b682c1ca48, type: 3}
      propertyPath: m_LocalRotation.z
      value: 0.2164396
      objectReference: {fileID: 0}
    - target: {fileID: 5833559824203752116, guid: e7f7618a1ecfefd4eba852b682c1ca48, type: 3}
      propertyPath: m_LocalEulerAnglesHint.x
      value: 0
      objectReference: {fileID: 0}
    - target: {fileID: 5833559824203752116, guid: e7f7618a1ecfefd4eba852b682c1ca48, type: 3}
      propertyPath: m_LocalEulerAnglesHint.y
      value: 0
      objectReference: {fileID: 0}
    - target: {fileID: 5833559824203752116, guid: e7f7618a1ecfefd4eba852b682c1ca48, type: 3}
      propertyPath: m_LocalEulerAnglesHint.z
      value: 25
      objectReference: {fileID: 0}
    - target: {fileID: 6200983221976888047, guid: e7f7618a1ecfefd4eba852b682c1ca48, type: 3}
      propertyPath: m_Enabled
      value: 0
      objectReference: {fileID: 0}
    - target: {fileID: 6200983221976888047, guid: e7f7618a1ecfefd4eba852b682c1ca48, type: 3}
      propertyPath: m_SpriteTilingProperty.oldSize.x
      value: 0.61
      objectReference: {fileID: 0}
    - target: {fileID: 6200983221976888047, guid: e7f7618a1ecfefd4eba852b682c1ca48, type: 3}
      propertyPath: m_SpriteTilingProperty.oldSize.y
      value: 0.49
      objectReference: {fileID: 0}
    - target: {fileID: 6841509754149388342, guid: e7f7618a1ecfefd4eba852b682c1ca48, type: 3}
      propertyPath: m_Name
      value: Hat
      objectReference: {fileID: 0}
    - target: {fileID: 6841509754149388342, guid: e7f7618a1ecfefd4eba852b682c1ca48, type: 3}
      propertyPath: m_IsActive
      value: 0
      objectReference: {fileID: 0}
    - target: {fileID: 8710300652808452881, guid: e7f7618a1ecfefd4eba852b682c1ca48, type: 3}
      propertyPath: m_Sprite
      value: 
      objectReference: {fileID: -9089044965278458494, guid: 8ff6ecb66b6b9ac4da983946eb6ad1f9, type: 3}
    - target: {fileID: 8710300652808452881, guid: e7f7618a1ecfefd4eba852b682c1ca48, type: 3}
      propertyPath: m_SortingOrder
      value: 11
      objectReference: {fileID: 0}
    m_RemovedComponents:
    - {fileID: -3440873009064375709, guid: e7f7618a1ecfefd4eba852b682c1ca48, type: 3}
    - {fileID: 8250805563966933572, guid: e7f7618a1ecfefd4eba852b682c1ca48, type: 3}
  m_SourcePrefab: {fileID: 100100000, guid: e7f7618a1ecfefd4eba852b682c1ca48, type: 3}
--- !u!4 &7830720938704741985 stripped
Transform:
  m_CorrespondingSourceObject: {fileID: 5833559824203752116, guid: e7f7618a1ecfefd4eba852b682c1ca48, type: 3}
  m_PrefabInstance: {fileID: 4348428801677591765}
  m_PrefabAsset: {fileID: 0}
